/*
* Copyright (c) 2017 Sprint
*
* Licensed under the Apache License, Version 2.0 (the "License");
* you may not use this file except in compliance with the License.
* You may obtain a copy of the License at
*
*    http://www.apache.org/licenses/LICENSE-2.0
*
* Unless required by applicable law or agreed to in writing, software
* distributed under the License is distributed on an "AS IS" BASIS,
* WITHOUT WARRANTIES OR CONDITIONS OF ANY KIND, either express or implied.
* See the License for the specific language governing permissions and
* limitations under the License.
*/



/**********************************************************************

     Name:     EMM 
  
     Type:     C include file
  
     Desc:     Defines required by LTE CNE EMM

     File:     ny_emm.x

     Sid:      cm_emm.x@@/main/nodal_main/akaranth_feat_lpdev_branch/1 - Tue Sep 29 21:39:55 2015

     Prg:      

**********************************************************************/

/*
*     The defines in this file correspond to structures and variables 
*     used by the following TRILLIUM software:
*
*     part no.             description
*     --------     ----------------------------------------------
*      
*
*/


#ifndef __EMMX__
#define __EMMX__


#ifdef __cplusplus
extern "C" {
#endif /* __cplusplus */


/* EMM Module */
typedef struct cmEmmNasSecAlgo          CmEmmNasSecAlgo;
typedef struct cmEmmNasKsi              CmEmmNasKsi;

typedef struct cmNasEvnt CmNasEvnt;

/* UE Radion capability information update needed */
typedef struct cmEmmUeRadCapInfoUpdNdd
{
   U8 pres;
   U8 urcUpdNdd;
}CmEmmUeRadCapInfoUpdNdd;

/* EPS Mobility Management Information Elements */


/* Location Area Identification */
typedef struct cmEmmLai
{
   U8 pres;
   U8 mcc[3];
   U8 mnc[3];
   U16 lac;
}CmEmmLai;

/* Mobile Identity */
typedef struct cmEmmMI
{
   U8 pres;
   U8 len;
   U8 type;
   U8 evenOddInd;
   union
   {
      struct
      {
         U8 id[CM_EMM_MAX_MOBILE_ID_DIGS];
      }imsi;
      struct
      {
         U32 id;
      }tmsi;
      struct
      {
         U8 mccMncInd;
         U8 mbmsSIdInd;
         U32 mbmsSvcId;
         U8 mcc[3];
         U8 mnc[3];
         U8 mbmsSesId;
      }tmgi;
   }u;
}CmEmmMI;

/* Mobile Station Classmark 2 */
typedef struct cmEmmMsClsMrk2
{
   U8 pres;

   U8 len;

   U8 rfPwrCap;
   U8 A51;
   U8 esInd;
   U8 revLvl;

   U8 FC;
   U8 VGCS;
   U8 CMS;
   U8 SMCap;
   U8 SSScrnInd;
   U8 PSCap;

   U8 A52;
   U8 A53;
   U8 CMSP;
   U8 SoLSA;
   U8 UCS2;
   U8 LCSVACap;
   U8 CM3;

}CmEmmMsClsMrk2;

/* Mobile Station Classmark 3 */
typedef struct cmEmmMsClsMrk3
{
   U8 pres;

   /* oct 3 */
   /* 1 spare bit */
   U8 mltBndSupp; /* 3 bits */
   U8 A57;
   U8 A56;
   U8 A55;
   U8 A54;

   /* oct 4 */
   U8 assocRadioCap2; /* 4 bits */
   U8 assocRadioCap1; /* 4 bits */

   /* oct 5 */
   U8 rsuppPres;
    U8 rgsmBandAssocRadioCap; /* 3 bits */
   U8 HSCSDMltSlotCapPres;
    U8 HSCSDMltSlotCls; /* 5 bits */ /* oct 6 starts */

   U8 UCS2trtmnt;
   U8 extndMeasCap;
   U8 msMeasCapPres;
    U8 sms_value; /* 4 bits */ /* oct 7 starts */

    U8 sm_value; /* 4 bits */
   U8 msPosMethodCapPres;
    U8 msPosMethod; /* 5 bits */ /* oct 8 starts */

   U8 ECSDmltSlotCapPres;
    U8 ECSDmltSlotCls; /* 5 bits */ /* oct 9 starts */

   U8 struct8PskPres;
    U8 struct8PskModCap;
    U8 struct8PskRfPwrCap1Pres;
     U8 struct8PskRfPwrCap1; /* 2 bits */
    U8 struct8PskRfPwrCap2Pres;
     U8 struct8PskRfPwrCap2; /* 2 bits */ /* oct 10 starts */

   U8 gsm400BandsSuppPres;
    U8 gsm400BandsSupp; /* 2 bits */
    U8 gsm400AssocRadioCap; /* 4 bits */

   /* oct 11 */
   U8 gsm850AssocRadioCapPres;
    U8 gsm850AssocRadioCap; /* 4 bits */
   U8 gsm1900AssocRadioCapPres;
    U8 gsm1900AssocRadioCap; /* 4 bits */ /* oct 12 starts */

   U8 umtsFddRadioAccTechCap;
   U8 umts384McpsTddRadioAccTechCap;
   U8 cdma2000RadioAccTech;
   U8 dtmGprsMltSlotPres;
    U8 dtmGprsMltSlotClass; /* 2 bits */

   /* oct 13 */
   U8 snglSlotDtm;
   U8 dtmEgprsMltSlotPres;
    U8 dtmEgprsMltSlotClass; /* 2 bits */
   U8 snglBandSuppPres;
    U8 gsmBand; /* 4 bits */ /* oct 14 starts */

   U8 gsm750AssocRadioCapPres;
    U8 gsm750AssocRadioCap; /* 4 bits */
   U8 umts128McpsTddRadioAccTechCap;
   U8 geranFeatPkg1;

   /* oct 15 */
   U8 extndDtmGprsMltSlotPres;
    U8 extndDtmGprsMltSlotClass; /* 2 bits */
    U8 extndDtmEgprsMltSlotClass; /* 2 bits */
   U8 hiMltSltCapPres;
    U8 hiMltSltCap; /* 2 bits */

   /* oct 16 */
   U8 geranIuModCapPres;
   U8 geranIuModCapLen; /* 4 bits, length in bits */
   U8 floIuCap;
   U32 geranIuModCapSpareBits; /* oct 17 may start here */

   U8 geranFeatPkg2;
   U8 gmskMltSlotPwrProf; /* 2 bits */
   U8 _8PskMltSlotPwrProf; /* 2 bits */
   U8 tgsm400BandsSuppPres;
    U8 tgsm400BandsSupp; /* 2 bits */

    U8 tgsm400AssocRadioCap; /* 4 bits */
   U8 tgsm900AssocRadioCapPres;
    U8 tgsm900AssocRadioCap; /* 4 bits */

   U8 dlAdvRcvrPerf; /* 2 bits */
   U8 dtmEnhancCap;
   U8 dtmGprsHighMltSlotPres;
    U8 dtmGprsHighMltSlotClass; /* 3 bits */

    U8 offsetReq;
    U8 dtmEgprsHighMltSlotClassPres;
     U8 dtmEgprsHighMltSlotClass; /* 3 bits */
   U8 rptdAcchCap;
   U8 gsm710AssocRadioCapPres;
    U8 gsm710AssocRadioCap; /* 4 bits */

   U8 gsm810AssocRadioCapPres;
    U8 gsm810AssocRadioCap; /* 4 bits */


   U8 ciphModSettingCap;
   U8 addnlPositioningCap;
   U8 eutraFddSupp;
   U8 eutraTddSupp;
   U8 eutraMeasAndRptngSupp;

}CmEmmMsClsMrk3;

/* NAS Security parameters from E-UTRA */
typedef struct cmEmmNasSecPrmFrmEutra
{
   U8 pres;
   U8 dlNasCnt;
}CmEmmNasSecPrmFrmEutra;

/* NAS Security parameters to E-UTRA */
typedef struct cmEmmNasSecPrmToEutra
{
   U8 pres;
   /* CM_TODO_SECOND_PHASE: add others including Nonce */
}CmEmmNasSecPrmToEutra;

typedef struct cmEmmPlmnId
{
   U8 mcc[3];
   U8 mnc[3];
}CmEmmPlmnId;
/* PLMN List */
typedef struct cmEmmPlmnLst
{
   U8 pres;
   U8 len;
  CmEmmPlmnId plmnLst[CM_EMM_MAX_PLMN_LIST];
}CmEmmPlmnLst;

/* Authentication Failure Parameter */
typedef struct cmEmmAuthFailrPrm
{
   U8 pres;
   U8 len;
   U8 authFailPrm[CM_EMM_MAX_AUTH_FAIL_PRM];
}CmEmmAuthFailrPrm;

/* Authentication Parameter AUTN */
typedef struct cmEmmAuthPrmAUTN
{
   U8 pres;
   U8 len;
   U8 val[CM_EMM_MAX_AUTN];
}CmEmmAuthPrmAUTN;

/* NAS Container  */
typedef struct cmEmmNasCont
{
   U8 pres;
   U8 len;
   U8 val[CM_EMM_MAX_NAS_CONT_VAL];
}CmEmmNasCont;

/* Authentication Parameter RAND */
typedef struct cmEmmAuthPrmRAND
{
   U8 pres;
   U8 val[CM_EMM_MAX_RAND]; /* 16 */
}CmEmmAuthPrmRAND;

/* Authentication Response Parameter RES */
typedef struct cmEmmAuthRspPrmRES
{
   U8 pres;
   U8 len;
   U8 val[CM_EMM_MAX_RES];
}CmEmmAuthPrmRES;

/* Ciphering Key Sequence Number */
typedef struct cmEmmCKSN
{
   U8 pres;
   /* CM_TODO_SECOND_PHASE: to add details */
}CmEmmCKSN;

/* CSFB Response */
typedef struct cmEmmCsfbRsp
{
   U8 pres;
   U8 csfbRsp;
}CmEmmCsfbRsp;

/* Daylight savings time */
typedef struct cmEmmDLSavingTime
{
   U8 pres;
   /* CM_TODO_SECOND_PHASE: to add details */
}CmEmmDLSavingTime;

/* Detach Type */
typedef struct cmEmmDetachType
{
   U8 pres;
   U8 type;
   U8 switchOff;
}CmEmmDetachType;

/* DRX parameter */
typedef struct cmEmmDrxPrm
{
   U8 pres;
   U16 spltPGCycle;
   U8 nonDrxTmr;
   U8 spltOnCcch;
   union
   {
      U8 drxVal;              /* in S1 mode " DRX value" */
      U8 cnSpDrxCyclLenCoeff; /* in Iu mode "CN specific DRX cycle length" */
   } u;
}CmEmmDrxPrm;

/* eDRX parameter */
typedef struct cmEmmeDrxPrm
{
   U8 pres;
   U8 len;
   U8 ptw;
   U8 edrxVal;              
}CmEmmeDrxPrm;

/* EMM Cause */
typedef struct cmEmmCause
{
   U8 pres;
   U8 cause;
}CmEmmCause;

/* EPS Attach result */
typedef struct cmEmmEpsAtchRes
{
   U8 pres;
   U8 res;
}CmEmmEpsAtchRes;

/* EPS Attach type */
typedef struct cmEmmEpsAtchType
{
   U8 pres;
   U8 type;
}CmEmmEpsAtchType;

/* GUTI */
typedef struct cmGuti
{
   U8 pres;
   U8 mcc[3];
   U8 mnc[3];
   U16 mmeGrpId;
   U8 mmeCode;
   U32 mTMSI;
}GUTI;
/* EPS Mobile Identity */
typedef struct cmEmmEpsMI
{
   U8 pres;

   U8 len;

   U8 type;
   U8 evenOddInd;

   union
   {
      GUTI guti;
      struct
      {
         U8 id[CM_EMM_MAX_MOBILE_ID_DIGS];
      } imsi;
   } u;
}CmEmmEpsMI;

/* EPS update result */
typedef struct cmEmmEpsUpdRes
{
   U8 pres;
   U8 res;
}CmEmmEpsUpdRes;

/* EPS update type */
typedef struct cmEmmEpsUpdType
{
   U8 pres;
   U8 actv;
   U8 type;
}CmEmmEpsUpdType;

#if 0
/* ESM Message Container */
typedef struct cmEmmEsmMsg
{
   U8 pres;
   U16 len;
   U8* esmPdu;
}cmEmmEsmMsg;
#endif

/* GPRS Timer */
typedef struct cmEmmGprsTimer
{
   U8 pres;
   U8 val;
   U8 unit;
}CmEmmGprsTimer;

/* GPRS Timer */
typedef struct cmEmmGprsTimer23
{
   U8 pres;
   U8 len;
   U8 val;
   U8 unit;
}CmEmmGprsTimer23;


/* Identity type 2 */
typedef struct cmEmmIdType2
{
   U8 pres;
   U8 type;
}CmEmmIdType2;

/* IMEISV Request */
typedef struct cmEmmIMEISVReq
{
   U8 pres;
   U8 val;
}CmEmmImeisvReq;

/* KSI and Sequence num */
typedef struct cmEmmKsiSeqNum
{
   U8 pres;
   U8 seqNum;
   U8 Ksi;
}CmEmmKsiSeqNum;

/* MS Network capability */
typedef struct cmEmmMsNwCap
{
   U8 pres;
   U8 len;
   U8 gea1;
   U8 smCapViaDdctdChan;
   U8 smCapViaGprsChan;
   U8 ucs2Supp;
   U8 ssScrInd;
   U8 soLsaCap;
   U8 revLvlInd;
   U8 pfcFeatMode;
   U8 gea2;
   U8 gea3;
   U8 gea4;
   U8 gea5;
   U8 gea6;
   U8 gea7;
   U8 lcsVaCap;
   U8 psInterRATho2UtranIuModeCap;
   U8 psInterRATho2EutranS1ModeCap;
   U8 csfbCap;
   U8 isrSupp;
   U8 srvcc2UtranCap;
   U8 epcCap;
}CmEmmMsNwCap;

/* NAS Key Set Identifier */
struct cmEmmNasKsi
{
   U8 pres;
   U8 id;
   U8 tsc;
};

/* NAS Message container */
typedef struct cmEmmNasMsgCont
{
   U8 pres;
   U8 len;
   U8* nasMsg;
}CmEmmNasMsgCont;

/* NAS Security Algorithms */
struct cmEmmNasSecAlgo
{
   U8 pres;
   U8 intProtAlgo;
   U8 ciphAlgo;
};

/* Network name */
typedef struct cmEmmNwName
{
   U8 pres;
   U8 len;

   U8 nmbSpBits;
   U8 addCI;
   U8 codingScheme;

   U8* txt;

}CmEmmNwName;

/* Nonce */
typedef struct cmEmmNonce
{
   U8 pres;
   U32 val;
}CmEmmNonce;

/* Paging Identity */
typedef struct cmEmmPagingId
{
   U8 pres;
   U8 val;
}CmEmmPagingId;

/* P-TMSI Signature */
typedef struct cmEmmPtmsiSign
{
   U8 pres;
   U32 val; /* 3 octets */
}CmEmmPtmsiSign;

/* Service Type */
typedef struct cmEmmSvcType
{
   U8 pres;
   U8 type;
}CmEmmSvcType;

/* Short MAC */
typedef struct cmEmmShortMAC
{
   U8 pres;
   U16 val;
}CmEmmShortMAC;

/* Time zone */
typedef struct cmEmmTimezone
{
   U8 pres;
   U8 tz;
}CmEmmTimezone;

/* Timezone and time */
typedef struct cmEmmTzTm
{
   U8 pres;

   U8 year;

   U8 month;

   U8 day;

   U8 hour;

   U8 min;

   U8 sec;

   U8 tz;

}CmEmmTzTm;

/* TMSI Status */
typedef struct cmEmmTmsiSts
{
   U8 pres;
   U8 flag;
}CmEmmTmsiSts;

/* Tracking area identity */
typedef struct cmEmmTAI
{
   U8 pres;
   U8 mcc[3];
   U8 mnc[3];
   U16 tac;
}CmEmmTai;


/* TAI List IE */
typedef struct cmEmmPartTaiLstType0
{
   U8 mcc[3];
   U8 mnc[3];
   U16 tac[CM_EMM_MAX_TAI_LIST];
}CmEmmPartTaiLstType0;

typedef struct cmEmmPartTaiLstType1
{
  CmEmmTai tai;
}CmEmmPartTaiLstType1;

typedef struct cmEmmPartTaiLstType2
{
  CmEmmTai tai[CM_EMM_MAX_TAI_LIST];
}CmEmmPartTaiLstType2;

typedef struct cmEmmTaiLst
{
   U8 pres;
   U8 len;
   struct
   {
      U8 type; /* 000, 001 or 010 */
      U8 numElm;
      union
      {
        CmEmmPartTaiLstType0 type0;
        CmEmmPartTaiLstType1 type1;
        CmEmmPartTaiLstType2 type2;
      }u;
   } partLst[CM_EMM_MAX_TAI_LIST];
} CmEmmTaiLst;

/* UE Network capability */
typedef struct cmEmmUeNwCap
{
   U8 pres;
   U8 len;

   U8 eea7;
   U8 eea6;
   U8 eea5;
   U8 eea4;
   U8 eea3;
   U8 eea2_128;
   U8 eea1_128;
   U8 eea0;

   U8 eia7;
   U8 eia6;
   U8 eia5;
   U8 eia4;
   U8 eia3;
   U8 eia2_128;
   U8 eia1_128;
   U8 eia0;

   U8 uea7;
   U8 uea6;
   U8 uea5;
   U8 uea4;
   U8 uea3;
   U8 uea2;
   U8 uea1;
   U8 uea0;

   U8 uia7;
   U8 uia6;
   U8 uia5;
   U8 uia4;
   U8 uia3;
   U8 uia2;
   U8 uia1;
   U8 ucs2;

   U8 vcc_1xsr;

} CmEmmUeNwCap;

/* UE Security Capability */
typedef struct cmEmmUeSecCap
{
   U8 pres;
   U8 len;

   U8 eea7;
   U8 eea6;
   U8 eea5;
   U8 eea4;
   U8 eea3;
   U8 eea2_128;
   U8 eea1_128;
   U8 eea0;

   U8 eia7;
   U8 eia6;
   U8 eia5;
   U8 eia4;
   U8 eia3;
   U8 eia2_128;
   U8 eia1_128;
   U8 eia0;

   U8 uea7;
   U8 uea6;
   U8 uea5;
   U8 uea4;
   U8 uea3;
   U8 uea2;
   U8 uea1;
   U8 uea0;

   U8 uia7;
   U8 uia6;
   U8 uia5;
   U8 uia4;
   U8 uia3;
   U8 uia2;
   U8 uia1;

   U8 gea7;
   U8 gea6;
   U8 gea5;
   U8 gea4;
   U8 gea3;
   U8 gea2;
   U8 gea1;

} CmEmmUeSecCap;

/* cm_emm_x_001.main_1: Removed unused structure cmMmeUeSecInfo */
/* Emergency number list */
typedef struct cmEmmEmrgNmbLst
{
   U8 pres;
   U8 len;

   U8 num1len;

   U8 emrgSvcCatVal1;

   U8 dgt1[CM_EMM_MAX_NMB_LEN];

   U8 num2len;

   U8 emrgSvcCatVal2;

   U8 dgt2[CM_EMM_MAX_NMB_LEN];
}CmEmmEmrgNmbLst;

/* CLI */
typedef struct cmEmmCLI
{
   U8 pres;
   U8 len;

   U8 nmbPlanId;
   U8 typeOfNmb;
   U8 ext;

   U8 scrInd;
   U8 prsntInd;

   U8 digit[CM_EMM_MAX_NMB_LEN];
}CmEmmCli;

/* SS Code */
typedef struct cmEmmSsCode
{
   U8 pres;
   U8 val;
}CmEmmSsCode;

/* LCS Indicator */
typedef struct cmEmmLcsInd
{
   U8 pres;
   U8 val;
}CmEmmLcsInd;

/* LCS client identity */
typedef struct cmEmmLcsClntId
{
   U8 pres;
   U8 len;

   /* CM_TODO_SECOND_PHASE: to add other details */

}CmEmmLcsClntId;

/* Supported Codec List */
typedef struct cmEmmCodec
{
   U8 sysId;
   U8 bmpLen;
   U16 bmp;
}CmEmmCodec;
typedef struct cmEmmSuppCodecLst
{
   U8 pres;
   U8 len;
  CmEmmCodec codec[CM_EMM_MAX_CODEC_LIST];
}CmEmmSuppCodecLst;

/*2 bytes of information */
typedef struct cmEpsBrCtxtSts
{
   U8 pres;
   U8 ebi00;
   U8 ebi01;
   U8 ebi02;
   U8 ebi03;
   U8 ebi04;
   U8 ebi05;
   U8 ebi06;
   U8 ebi07;
   U8 ebi08;
   U8 ebi09;
   U8 ebi10;
   U8 ebi11;
   U8 ebi12;
   U8 ebi13;
   U8 ebi14;
   U8 ebi15;
}CmEpsBrCtxtSts;

typedef struct cmEmmFeatureSprt
{
   U8 pres;
   U8 imsVops;
}CmEmmFeatureSprt;
typedef struct cmEmmAddUpdType
{
  U8 pres;
  U8 autv;
}CmEmmAddUpdType; 

typedef struct cmEmmAddUpdRes
{
  U8 pres;
  U8 addUpdRes;
}CmEmmAddUpdRes; 

typedef struct cmEmmVdpUeUsgSttng
{
  U8 pres;
  U8 vdp;
  U8 usgSttng;
} CmEmmVdpUeUsgSttng;

/* EPS Mobility Management Messages */
/* Attach Accept */
/*
IEI   Information Element           Presence   Format   Length  Reference
      Protocol discriminator            M        V      1/2     9.2
      Security header type              M        V      1/2     9.3.1
      Attach accept message identity    M        V      1       9.8
      EPS attach result                 M        V      1/2     9.9.3.10
      Spare half octet                  M        V      1/2     9.9.3.9
      T3412 value                       M        V      1       9.9.3.16
      TAI list                          M        LV     7-97    9.9.3.33 
      ESM message container             M        LV-E   2-n     9.9.3.15
50    GUTI                              O        TLV    13      9.9.3.12
13    Location area identification      O        TV     6       9.9.2.2
23    MS identity                       O        TLV    7-10    9.9.2.3
53    EMM cause                         O        TV     2       9.9.3.9
17    T3402 value                       O        TV     2       9.9.3.16
59    T3423 value                       O        TV     2       9.9.3.16
4A    Equivalent PLMNs                  O        TLV    5-47    9.9.2.8
34    Emergency Number List             O        TLV    5-50    9.9.3.37
5E    T3412 extended value              O        TLV    3       9.9.3.16B
6A    T3324 value                       O        TLV    3       9.9.3.16A
6E    Extended DRX parameters           O        TLV    3
*/

typedef struct cmEmmAttachAccept
{
   CmEmmEpsAtchRes epsAtchRes;
   CmEmmGprsTimer t3412;
   CmEmmTaiLst taiLst;
   CmNasEvnt *esmEvnt;
   CmEmmEpsMI guti;
   CmEmmLai lai;
   CmEmmMI msId;
   CmEmmCause cause;
   CmEmmGprsTimer t3402;
   CmEmmGprsTimer t3423;
   CmEmmPlmnLst eqPlmnLst;
   CmEmmEmrgNmbLst emrgNmbLst;
   CmEmmGprsTimer23 t3412ev;
   CmEmmGprsTimer23 t3324;
   CmEmmeDrxPrm edrxPrm;
}CmEmmAttachAccept;

/* Attach Complete */
/*
Information Element             Presence   Format   Length
Protocol discriminator             M         V        1/2
Security header type               M         V        1/2
Attach complete message identity   M         V        1
ESM message container              M         LV-E     2-n
*/
typedef struct cmEmmAttachComplete
{
  CmNasEvnt *esmEvnt;
}CmEmmAttachComplete;


/* Attach Reject */
/*
IEI Information Element           Presence   Format   Length
    Protocol discriminator           M          V       1/2
    Security header type             M          V       1/2
    Attach reject message identity   M          V       1
    EMM cause                        M          V       1
78  ESM message container            O          TLV-E   4-n
*/
typedef struct cmEmmAttachReject
{
  CmEmmCause emmCause;
  CmNasEvnt *esmEvnt;
}CmEmmAttachReject;


/* Attach Request */
/*
IEI Information Element              Presence   Format   Length
    Protocol discriminator             M           V       1/2
    Security header type               M           V       1/2
    Attach request message identity    M           V       1
    EPS attach type                    M           V       1/2
    NAS key set identifier             M           V       1/2
    Old GUTI or IMSI                   M           LV      5-12
    UE network capability              M           LV      3-14
    ESM message container              M           LV-E    2-n
19  Old P-TMSI signature               O           TV      4
50  Additional GUTI                    O           TLV     13
52  Last visited registered TAI        O           TV      6
5C  DRX parameter                      O           TV      3
31  MS network capability              O           TLV     4-10
13  Old location area identification   O           TV      6
9-  TMSI status                        O           TV      1
11  Mobile station classmark 2         O           TLV     5
20  Mobile station classmark 3         O           TLV     2-34
40  Supported Codecs                   O           TLV     5-n
F-  Additional update type	            O	         TV      1
5D Voice domain preference and UE's usage setting  Voice domain preference and UE's usage setting

5E    T3412 extended value              O        TLV    3       9.9.3.16B
6A    T3324 value                       O        TLV    3       9.9.3.16A
6E    Extended DRX parameters           O        TLV    3       9.9.3.46
*/

typedef struct cmEmmAttachRequest
{
  CmEmmEpsAtchType epsAtchType;
  CmEmmNasKsi nasKsi;
  CmEmmEpsMI epsMi; /* Old GUTI or IMSI */
  CmEmmUeNwCap ueNwCap;
  CmNasEvnt *esmEvnt;
  CmEmmPtmsiSign oldPtmsiSign;
  CmEmmEpsMI addnlGuti;
  CmEmmTai lastTai;
  CmEmmDrxPrm drxPrm;
  CmEmmMsNwCap msNwCap;
  CmEmmLai oldLai;
  CmEmmTmsiSts tmsiSts;
  CmEmmMsClsMrk2 msClsMrk2;
  CmEmmMsClsMrk3 msClsMrk3;
  CmEmmSuppCodecLst suppCodecLst;
  CmEmmAddUpdType    addUpdType;
  CmEmmVdpUeUsgSttng vdpUsgSttng;
  CmEmmGprsTimer23 t3412ev;
  CmEmmGprsTimer23 t3324;
  CmEmmeDrxPrm edrxPrm;
}CmEmmAttachRequest;


/* Authentication Failure */
/*
IEI Information element                 Presence   Format   Length
    Protocol discriminator                M           V      1/2
    Security header type                  M           V      1/2
    Authentication failure message type   M           V      1
    EMM cause                             M           V      1
30  Authentication failure parameter      O           TLV    16
*/
typedef struct cmEmmAuthFailure
{
   CmEmmCause cause;
   CmEmmAuthFailrPrm failrPrm;
}CmEmmAuthFailure;


/* Authentication Reject */
/*
Information element                 Presence   Format   Length
Protocol discriminator                 M         V       1/2
Security header type                   M         V       1/2
Authentication reject message type     M         V       1
*/
typedef struct cmEmmAuthReject
{
   U8 type;
}CmEmmAuthReject;


/* Authentication Request */
/*
Information element                           Presence   Format   Length
Protocol discriminator                          M          V        1/2
Security header type                            M          V        1/2
Authentication request message type             M          V        1
NAS key set identifierASME                      M          V        1/2
Spare half octet                                M          V        1/2
Authentication parameter RAND (EPS challenge)   M          V        16
Authentication parameter AUTN (EPS challenge)   M          LV       17
*/
typedef struct cmEmmAuthReq
{
   CmEmmNasKsi nasKsi;
   CmEmmAuthPrmRAND RAND;
   CmEmmAuthPrmAUTN AUTN;
}CmEmmAuthReq;

/*
 * Support for SMS-MO and SMS-MT
 *
 * Added definitions to breakout the NAS PDU associated with Uplink
 * NAS Transport and Downlink NAS Transport.
 *
 */

typedef struct cmEmmNasRpCause
{
   U8 len;
   U8 value[MAX_RPERROR_CAUSE_VALUES];
   U8 diagPres;
   U8 diag;
} CmEmmNasRpCause;

/* RPUser data element */
/*
Information element                           Presence   Format   Length
RPUser Data IEI                                 M          V        7 bits
Length indicator                                M          V        1
TPDU                                            M          LV       <= 232
*/
typedef struct cmEmmNasRpUserData
{
   U8 len;
   U8 tpdu[MAX_TPDU_LEN];
} CmEmmNasRpUserData;

/* RP address element */
typedef struct cmEmmNasRpAddress
{
	U8 ext;
	U8 type_of_number;
	U8 nbr_plan_id;
	U8 len;
	U8 address[MAX_RP_ADDRESS_LEN];
} CmEmmNasRpAddress;

/* RPDATA */
/*
(Moblie Station to Network)
Information element                           Presence   Format   Length
RPMessage Type                                  M          V        3 bits
RPMessage Reference                             M          V        1
RPOriginator Address                            M          LV       1
RPDestination Address                           M          LV       112
RPUser Data                                     M          LV       <= 233

(Network to Mobile Station)
Information element                           Presence   Format   Length
RPMessage Type                                  M          V        3 bits
RPMessage Reference                             M          V        1
RPOriginator Address                            M          LV       112
RPDestination Address                           M          LV       1
RPUser Data                                     M          LV       <= 233
*/
typedef struct cmEmmNasRpData
{
   CmEmmNasRpAddress origAddr;
   CmEmmNasRpAddress destAddr;
   CmEmmNasRpUserData userData;
} CmEmmNasRpData;

/* RPACK */
/*
Information element                           Presence   Format   Length
RPMessage Type                                  M          V        3 bits
RPMessage Reference                             M          V        1
RPUser Data                                     M          LV       <= 234
*/
typedef struct cmEmmNasRpAck
{
   CmEmmNasRpUserData userData;
} CmEmmNasRpAck;

/* RPERROR (both directions) */
/*
Information element                           Presence   Format   Length
RPMessage Type                                  M          V        3 bits
RPMessage Reference                             M          V        1
RPCause                                         M          LV       23
RPUser Data                                     O          TLV      <= 234
*/
typedef struct cmEmmNasRpError
{
   CmEmmNasRpCause cause;
   CmEmmNasRpUserData userData;
} CmEmmNasRpError;

typedef struct cmEmmNasCpAck
{
} CmEmmNasCpAck;

typedef struct cmEmmNasCpError
{
   U8 cpcause;
} CmEmmNasCpError;

/* CPDATA */
/*
Information element                           Presence   Format   Length
Protocol discriminator                          M          V        1/2
Transaction identifier                          M          V        1/2
Message type                                    M          V        1
CPUser data                                     M          LV       <= 249
*/
typedef struct cmEmmNasCpData
{
   U8 msgType;
   U8 rpMsgRef;
   union
   {
      CmEmmNasRpData rpdata;
      CmEmmNasRpAck rpack;
      CmEmmNasRpError rperror;
   } u;
} CmEmmNasCpData;

#pragma pack(push,1)
typedef struct cmEmmNasCp
{
	U8 pd     : 4;
	U8 tio    : 3;
	U8 tiflag : 1;
	U8 msgType;
   union
   {
      CmEmmNasCpData  cpdata;
      CmEmmNasCpAck   cpack;
      CmEmmNasCpError cperror;
   } u;
} CmEmmNasCp;
#pragma pack(pop)

typedef struct cmEmmDlNasTpt
{
   U8 len;
   union
   {
      U8 enc[CM_EMM_MAX_NAS_CONT_VAL];
      CmEmmNasCp dec;
   } u;
} CmEmmDlNasTpt;

typedef struct cmEmmUlNasTpt
{
   CmEmmNasCp cp;
   union
   {
      CmEmmNasCpData  cpdata;
      CmEmmNasCpAck   cpack;
      CmEmmNasCpError cperror;
   } u;
} CmEmmUlNasTpt;

/*
 * End Support for SMS-MO and SMS-MT
 */

/* Authentication Response */
/*
Information element                  Presence   Format   Length
Protocol discriminator                 M           V      1/2
Security header type                   M           V      1/2
Authentication response message type   M           V      1
Authentication response parameter      M           LV     5-17
*/
typedef struct cmEmmAuthRsp
{
   CmEmmAuthPrmRES RES;
}CmEmmAuthRsp;


/* CS Service Notification */
/*
IEI  Information Element                      Presence   Format   Length
     Protocol discriminator                     M           V       1/2
     Security header type                       M           V       1/2
     CS service notification message identity   M           V       1
     Paging identity                            M           V       1
60   CLI                                        O           TLV     3-14
61   SS Code                                    O           TV      2
62   LCS indicator                              O           TV      2
63   LCS client identity                        O           TLV     3-257
*/
typedef struct cmEmmCSSrvNotifn
{
   U8 type;
}CmEmmCSSrvNotifn;


/* Detach Accept */
/*
Information Element            Presence   Format   Length
Protocol discriminator           M          V       1/2
Security header type             M          V       1/2
Detach accept message identity   M          V       1
*/
typedef struct cmEmmDetachAcc
{
   U8 type;
} CmEmmDetachAcc;

/* Detach Request */
/*
Information Element             Presence   Format   Length
Protocol discriminator            M          V       1/2
Security header type              M          V       1/2
Detach request message identity   M          V       1
Detach type                       M          V       1/2
NAS key set identifier            M          V       1/2
GUTI or IMSI                      M          LV      5-12
*/
typedef struct cmEmmDetachReq
{
  CmEmmDetachType detchType;
  CmEmmNasKsi     nasKsi;
  CmEmmEpsMI      epsMi;  /* GUTI or IMSI */
  /* cm_emm_x_001.main_3: Cause IE added */
  CmEmmCause 	  cause;
}CmEmmDetachReq;

/* Downlink NAS Transport */

/* EMM Information */

/* EMM Status */
/*
Information Element Type/Reference Presence Format Length
Protocol discriminator Protocol discriminator 9.2 M V 1/2
Security header type Security header type 9.3.1 M V 1/2
EMM status message identity Message type 9.8 M V 1
EMM cause EMM cause 9.9.3.9 M V 1
*/
typedef struct cmEmmSatus
{
   CmEmmCause emmCause;
} CmEmmStatus;

/* Extended Service Request */

/* GUTI Reallocation Command */

/* GUTI Reallocation complete */

/* Identity Request */
/*
Information Element               Presence   Format   Length
Protocol discriminator              M   V   1/2
Security header type                M   V   1/2
Identity request message identity   M   V   1
Identity type                       M   V   1/2
Spare half octet                    M   V   1/2
*/
typedef struct cmEmmIdReq
{
   CmEmmIdType2 idType;
   U8 sprHalfOct;
} CmEmmIdReq;

/* Identity Response */
/*
Information Element        Presence   Format   Length
Protocol discriminator      M          V   1/2
Security header type        M          V   1/2
Identity response message   M          V   1
Mobile identity             M          LV   4-10
*/
typedef struct cmEmmIdRsp
{
   CmEmmMI msId;
} CmEmmIdRsp;

/* Security Mode Command */
/*
IEI	Information Element	                      Presence	Format	Length
	   Protocol discriminator	                9.2	M	        V	1/2
	   Security header type	                9.3.1	M	        V	1/2
	   Security mode command message identity	9.8	M	        V	1
	   Selected NAS security algorithms	  9.9.3.23	M	        V	1
	   NAS key set identifier	          9.9.3.21	M	        V	1/2
	   Spare half octet	                 9.9.2.9	M	        V	1/2
	   Replayed UE security capabilities	9.9.3.36	M	        LV	3-6
C-	   IMEISV request	                   9.9.3.18	O	        TV	1
55	   Replayed nonceUE	                9.9.3.25	O	        TV	5
56	   NonceMME	                         9.9.3.25	O	        TV	5
*/
typedef struct
{
   CmEmmNasSecAlgo selNasSecAlgo;
   CmEmmNasKsi     nasKsi;
   CmEmmUeSecCap   rpldUeSecCap;
   CmEmmImeisvReq  imeisvReq;
   CmEmmNonce      rpldNonce;
   CmEmmNonce      nonce;
} CmEmmSecModeCmd;

/* Security Mode Complete */
/*
IEI	Information Element	                        Presence	Format	Length
	   Protocol discriminator	                  9.2	M	     V	1/2
	   Security header type	                   9.3.1	M	     V	1/2
	   Security mode complete message identity	9.8	M	     V	1
23	   IMEISV	                             9.9.2.3	O	     TLV	11
*/
typedef struct
{
   CmEmmMI imeisv;
} CmEmmSecModeCmp;


/* Security Mode Reject */
/*
IEI	Information Element	                        Presence	Format	Length
	   Protocol discriminator	                  9.2	M	V	1/2
	   Security header type	                   9.3.1	M	V	1/2
	   Security mode reject message identity	   9.8	M	V	1
	   EMM cause	                          9.9.3.9	M	V	1
*/
typedef struct
{
   CmEmmCause cause;
}CmEmmSecModeRej;

/* Security protected NAS Message */

/* Service Reject */

/* cm_emm_x_001.main_2: Added msg service req */
/* Service Request */
/*
IEI Information Element              Presence   Format   Length
    Protocol discriminator             M           V       1/2
    Security header type               M           V       1/2
    KSI and Sequence Number            M           V       1
    Message Authentication Code        M           V       2
    (Short MAC)
*/
typedef struct cmEmmServiceReq
{
  CmEmmKsiSeqNum ksiSeqNum;
  CmEmmShortMAC  shortMac;
}CmEmmServiceReq;

typedef struct cmEmmServiceRej
{
  CmEmmCause emmCause;
  CmEmmGprsTimer t3442;
}CmEmmServiceRej;


/* Tracking Area Update Accept */
/*
IEI Information Element                                 Presence   Format   Length
    Protocol discriminator	                  9.2	   M	      V	      1/2
    Security header type	                  9.3.1	   M	      V	      1/2
    Tracking area update accept message identity  9.8	   M	      V	      1
    EPS update result	                          9.9.3.13 M	      V	      1/2
    Spare half octet	                          9.9.2.9  M	      V	      1/2
5A  T3412 value	                                  9.9.3.16 O	      TV      2
50  GUTI	                                  9.9.3.12 O	      TLV     13
54  TAI list	                                  9.9.3.33 O	      TLV     8-98
57  EPS bearer context status	                  9.9.2.1  O	      TLV     4
13  Location area identification	          9.9.2.2  O	      TV      6
23  MS identity	                                  9.9.2.3  O	      TLV     7-10
53  EMM cause	                                  9.9.3.9  O	      TV      2
17  T3402 value	                                  9.9.3.16 O	      TV      2
59  T3423 value	                                  9.9.3.16 O	      TV      2
4A  Equivalent PLMNs                              9.9.2.8  O	      TLV     5-47
34  Emergency number list	                  9.9.3.37 O	      TLV     5-50
64  EPS network feature support	                  9.9.3.12AO	      TLV     3
F-  Additional update result	                  9.9.3.0A O	      TV      1
5E  T3412 extended value                          9.9.3.16B           TLV     3
6A  T3324 value                                   9.9.3.16A           TLV     3
6E  Extended DRX parameters                       9.9.3.46            TLV     3
*/
typedef struct cmEmmTAUAcc 
{    
   CmEmmEpsUpdRes    epsUpdRes;
   U8                sprHalfOct;
   CmEmmGprsTimer    t3412;
   CmEmmEpsMI        guti;
   CmEmmTaiLst       taiLst;
   CmEpsBrCtxtSts    bearerSts;
   CmEmmLai          lai;
   CmEmmMI           msId;
   CmEmmCause        cause;
   CmEmmGprsTimer    t3402;
   CmEmmGprsTimer    t3423;
   CmEmmPlmnLst      eqPlmnLst;
   CmEmmEmrgNmbLst   emrgNmbLst;
   CmEmmFeatureSprt  feature;
   CmEmmAddUpdRes    addUpdRes;
   CmEmmGprsTimer23 t3412ev;
   CmEmmGprsTimer23 t3324;
   CmEmmeDrxPrm edrxPrm;
}CmEmmTAUAcc;


/* Tracking Area Update Complete */
/*
IEI Information Element                                 Presence   Format   Length
    Protocol discriminator	                  9.2	   M	      V	      1/2
    Security header type	                  9.3.1	   M	      V	      1/2
    Tracking area update complete message identity9.8	   M	      V	      1
*/

/* Tracking Area Update Reject */
/*
IEI Information Element                                 Presence   Format   Length
    Protocol discriminator	                  9.2	   M	      V	      1/2
    Security header type	                  9.3.1	   M	      V	      1/2
    Tracking area update reject message identity  9.8	   M	      V	      1
    EMM cause	                                  9.9.3.9  M	      V	      1
*/
typedef struct cmEmmTAURej 
{    
   CmEmmCause     cause;
}CmEmmTAURej;

/* Tracking Area Update Request */
/*
IEI Information Element                                 Presence   Format   Length
    Protocol discriminator	                  9.2	   M	      V	      1/2
    Security header type                          9.3.1	   M	      V	      1/2
    Tracking area update request message identity 9.8	   M	      V	      1
    EPS update type	                          9.9.3.14 M	      V	      1/2
    NAS key set identifier	                  9.9.3.21 M	      V	      1/2
    Old GUTI 	                                  9.9.3.12 M	      LV      12
B-  Non-current native NAS key set identifier	  9.9.3.21 O	      TV      1
8-  GPRS ciphering key sequence number	          9.9.3.4a O	      TV      1
19  Old P-TMSI signature	                  9.9.3.26 O	      TV      4
50  Additional GUTI	                          9.9.3.12 O	      TLV     13
55  NonceUE	                                  9.9.3.25 O	      TV      5
58  UE network capability	                  9.9.3.34 O	      TLV     4-15
52  Last visited registered TAI	                  9.9.3.32 O	      TV      6
5C  DRX parameter	                          9.9.3.8  O	      TV      3
A-  UE radio capability information update needed 9.9.3.35 O	      TV      1
57  EPS bearer context status	                  9.9.2.1  O	      TLV     4
31  MS network capability	                  9.9.3.20 O	      TLV     4-10
13  Old location area identification	          9.9.2.2  O	      TV      6
9-  TMSI status	                                  9.9.3.31 O	      TV      1
11  Mobile station classmark 2	                  9.9.2.4  O	      TLV     5
20  Mobile station classmark 3	                  9.9.2.5  O	      TLV     2-34
40  Supported Codecs	                          9.9.2.10 O	      TLV     5-n
F-  Additional update type	                  9.9.3.0B O	      TV      1
5D Voice domain preference and UE's usage setting  Voice domain preference and UE's usage setting
9.9.3.44 O  TLV   3
5E    T3412 extended value              O        TLV    3       9.9.3.16B
6A    T3324 value                       O        TLV    3       9.9.3.16A
6E    Extended DRX parameters           O        TLV    3
*/




typedef struct cmEmmTAUReq 
{
   CmEmmEpsUpdType         epsUpdType;
   CmEmmNasKsi             ksi;
   CmEmmEpsMI              guti;
   CmEmmNasKsi             nonCrntksi;
   CmEmmCKSN               cksn;
   CmEmmPtmsiSign          ptmsiSig;
   CmEmmEpsMI              addGuti;
   CmEmmNonce              nonce;
   CmEmmUeNwCap            ueNwCap;
   CmEmmTai                lastTai;
   CmEmmDrxPrm             drxPrm;
   CmEmmUeRadCapInfoUpdNdd ueRadCapUpdNdd;
   CmEpsBrCtxtSts          bearerSts;
   CmEmmMsNwCap            msNwCap;
   CmEmmLai                oldLai;
   CmEmmTmsiSts            tmsiSts;
   CmEmmMsClsMrk2          classM2;
   CmEmmMsClsMrk3          classM3;
   CmEmmSuppCodecLst       sprtCodec;
   CmEmmAddUpdType         addUpdType;
   CmEmmVdpUeUsgSttng      vdpUsgSttng;
   CmEmmGprsTimer23        t3324;
   CmEmmGprsTimer23        t3412ev;
   CmEmmeDrxPrm            edrxPrm;
}CmEmmTAUReq;

/* GUTI Reallocation Command */
/*
IEI	Information Element		               Presence	    Format   Length
	Protocol discriminator	                  9.2	  M	      V	      1/2
	Security header type	                  9.3.1	  M	      V	      1/2
	GUTI reallocation command message identity9.8	  M	      V	      1
	GUTI	                                  9.9.3.12M	      LV      12
54	TAI list	                          9.9.3.33O	      TLV     8-98
*/
typedef struct cmEmmGUTIReallocCmd
{
   CmEmmEpsMI              guti;
   CmEmmTaiLst             taiLst;
}CmEmmGUTIReallocCmd;


/* GUTI Reallocation Complete */
/*
IEI	Information Element		               Presence	    Format   Length
	Protocol discriminator	                  9.2	  M	      V	      1/2
	Security header type	                  9.3.1	  M	      V	      1/2
	GUTI reallocation complete message identity9.8	  M	      V	      1
*/

/* Uplink NAS Transport */

/* EMM Message */
typedef struct cmEmmMsg
{
   U8  protDisc;
   U8  secHdrType;
   U8  msgId;
   union
   {
     CmEmmAttachRequest  atchReq;
     CmEmmAttachReject   atchRej;
     CmEmmAttachComplete atchCmp;
     CmEmmAttachAccept   atchAcc;
     CmEmmAuthFailure    authFlr;
     CmEmmAuthReject     authRej;
     CmEmmAuthReq        authReq;
     CmEmmAuthRsp        authRsp;
     CmEmmDetachReq      dtchReq;
     CmEmmIdReq          idReq;
     CmEmmIdRsp          idRsp;
     CmEmmSecModeCmd     secModCmd;
     CmEmmSecModeCmp     secModCmp;
     CmEmmSecModeRej     secModRej;
     CmEmmStatus         emmSts;
     /* cm_emm_x_001.main_2: Added msg service req */
     CmEmmServiceReq     srvReq;
     /* cm_emm_x_001.main_3: Added detach accept msg */
     CmEmmDetachAcc      dtchAcc;
     CmEmmServiceRej     srvRej;
     CmEmmTAUReq         tauReq;
     CmEmmTAUAcc         tauAcc;
     CmEmmTAURej         tauRej;
     CmEmmGUTIReallocCmd gutiReallocCmd;
     CmEmmUlNasTpt       ulNasTpt;
     CmEmmDlNasTpt       dlNasTpt;
   }u;
} CmEmmMsg;



/* Typedefs for function pointers */
typedef S16 (*EmmCondFuncPtr) ARGS ((CmEmmMsg *pdu));
typedef S16 (*EmmDecFunctPtr) ARGS ((U8* buf, U32 *indx, CmEmmMsg *msg, U32 ieLen));
typedef S16 (*EmmEncFunctPtr) ARGS ((U8* buf, U32 *indx, CmEmmMsg *msg, U16 *ieLen));

/**********************************************************************
   It contains all the info related to an IE. A message shall contain a series of IEs in this format. 
   All the messages shall be populated with the information of the IEs which are present in those messages. 
   The codec fetches this info for encoding and decoding. It contains,
   -# iei : IE Identifier which is a local hash define
   -# presType : Says whether this IE is mandatory/optional/conditional
   -# format : Says whether the IE is in the format of T/V/TV/LV/TLV
   -# length : Specifies the length value field in bits for IE.
   -# cFunc : Function pointer that checks for the condition for a conditional IE.
   -# decFunc : Function pointer that decodes the IE.
   -# encFunc : Function pointer that encodes the IE.
   -# lastIE : If its the last IE in message set to TRUE.

**********************************************************************/
typedef struct cmEmmEdmMsgFormat
{
   U8 iei;      /* Specifies the identifier as local hash define
                 * for the IE */
   U8 presType; /* Indicates Presence Type
                 *    1. EDM_PRES_MANDATORY   - IE is mandatory
                 *    2. EDM_PRES_OPTIONAL    - IE is optional
                 *    3. EDM_PRES_CONDITIONAL - IE is conditional
                 */
   U8 format;    /* Indicates the format of IE
                  *   1. EDM_FMTV   - Value
                  *   2. EDM_FMTTV  - Tag+Value
                  *   3. EDM_FMTTLV - Tag+Length+Value
                  *   4. EDM_FMTT   - Tag
                  *   5. EDM_FMTLV  - Length+Value
                  */
   Bool lastIE;  /* If its the last IE in message set to TRUE */
   U32 length;   /* Specifies the length in bits for IE that have following
                  * format EDM_FMTV, EDM_FMTTV. For rest it is ZERO.
                  */

   EmmCondFuncPtr cFunc; /* Function pointer that check for the condition
                       * associated with IE in this message. Applicable
                       * only for IE's with presType as EDM_PRES_CONDITIONAL
                       */

   EmmEncFunctPtr encFunc; /* Function pointer that encodes the IE */
   EmmDecFunctPtr decFunc; /* Function pointer that decodes the IE */

} CmEmmEdmMsgFormat;

#ifdef __cplusplus
}
#endif /* __cplusplus */

#endif /* __EMMX__ */


/**********************************************************************
  
         End of file:     cm_emm.x@@/main/nodal_main/akaranth_feat_lpdev_branch/1 - Tue Sep 29 21:39:55 2015
   
**********************************************************************/

/**********************************************************************
        Revision History:

**********************************************************************/
/********************************************************************90**
 
     ver       pat    init                  description
------------ -------- ---- ----------------------------------------------
/main/1      ---      rp              1. LTE-CNE Initial Release.
/main/2      ---      cm_emm_x_001.main_1    rk     1. Removed unused structure cmMmeUeSecInfo.
/main/3      ---      cm_emm_x_001.main_2    rk     1. Added msg service req
/main/4      ---      cm_emm_x_001.main_3    rk     1. Added support for Network initiated Detach
/main/5      ---      cm_emm_x_001.main_4    akaranth 1. Added support for TAU feature 
*********************************************************************91*/
