/*
* Copyright (c) 2017 Sprint
*
* Licensed under the Apache License, Version 2.0 (the "License");
* you may not use this file except in compliance with the License.
* You may obtain a copy of the License at
*
*    http://www.apache.org/licenses/LICENSE-2.0
*
* Unless required by applicable law or agreed to in writing, software
* distributed under the License is distributed on an "AS IS" BASIS,
* WITHOUT WARRANTIES OR CONDITIONS OF ANY KIND, either express or implied.
* See the License for the specific language governing permissions and
* limitations under the License.
*/



/********************************************************************20**
 
     Name:     Common Memory Manager 
 
     Type:     C include file
 
     Desc:     Data structure definitions that are used by 
               the Common Memory Manager.
 
     File:     cm_mem.x
 
     Sid:      cm_mem.x@@/main/nodal_main/1 - Thu Nov 21 09:40:15 2013
 
     Prg:      rm
 
*********************************************************************21*/

#ifndef __CMMEMX_
#define __CMMEMX_

#ifdef __cplusplus
extern "C" {
#endif
/*cm_mem_x_001.main_12: As these required for the following only */
#if (defined(SS_HISTOGRAM_SUPPORT) || defined(SS_MEM_LEAK_STS))
#include "cm_hash.h" /* cm_mem_x_001.main_11: Additions */
#include "cm_hash.x"
#endif /* SS_HISTOGRAM_SUPPORT */



/* typedefs */
typedef struct cmMmRegCfg    CmMmRegCfg;
typedef struct cmMmBktCfg    CmMmBktCfg;

 
typedef struct   cmMmRegCb     CmMmRegCb;
typedef struct   cmMmMapBkt    CmMmMapBkt;
typedef struct   cmMmHeapCb    CmMmHeapCb;
typedef struct   cmMmBkt       CmMmBkt;
typedef struct   cmHEntry      CmHEntry;
/* cm_mem_x_001.main_9 - addition of new data types for providing 
* header for memory blocks in buckets and a hash list to maintain
* size vs. numAttempts statistics 
*/
#ifdef SSI_DEBUG_LEVEL1
typedef struct cmMmBlkHdr      CmMmBlkHdr;
typedef struct cmMmHashListEnt   CmMmHashListEnt;
typedef struct cmMmHashListCp   CmMmHashListCp;
#endif /* SSI_DEBUG_LEVEL1 */
typedef Data     CmMmEntry;
 /* cm_mem_x_001.main_11: Additions */
#ifdef SS_HISTOGRAM_SUPPORT 
typedef struct cmHstGrmHashListCp   CmHstGrmHashListCp;
typedef struct cmHstGrmHashListEnt  CmHstGrmHashListEnt;
typedef struct cmMemEntries         CmMemEntries;
#endif /* SS_HISTOGRAM_SUPPORT */
 
/* forward definitions */


/************************************************************************
      Common Memory Manager Configuration Data Structures
************************************************************************/

/* Bucket configuration structure. */
struct cmMmBktCfg
{
   Size  size;              /* Size of the memory block */
   U32   numBlks;           /* Number of the block in the bucket */
};

/* Memory Region configuration structure. */ 
struct cmMmRegCfg
{
   Size      size;          /* Size of the memory */
   Data     *vAddr;         /* Start address of the memory */
   U8        lType;         /* Lock Type to be used */
 
   U8        chFlag;        /* Flag defines the memory region characteristics */
   Data     *pAddr;         /* Physical address of the memory block: Valid 
                               if CMM_REG_PHY_VALID bit of chFlag is set */
   Size      bktQnSize;     /* Quatum size of the memory block */
   U16       numBkts;       /* Number of buckets in the Bucket Pool */
 
   CmMmBktCfg  bktCfg[CMM_MAX_BKT_ENT];  /* Bucket configuration structure */
};
 
/************************************************************************
      Common Memory Manager Implementation Data Structures
************************************************************************/
/* cm_mem_x_001.main_11: Additions */
#ifdef SS_HISTOGRAM_SUPPORT 
struct cmMemEntries /* Entry information */
{
   U32              line; /* Line Number where memory allocation primitive used */
   U32              allocBytes; /* Granted Byte */
   U32              allocOverFlow; /* If the value of allocBytes overflows then we use this variable */
   U32              freedBytes; /* Freed Bytes */
   U32              freeOverFlow; /* If the value of freeByte overflows then we use this value */
   U32              wastedBytes; /* Difference between Granted and Requested bytes */
   U32              bucketAllocReq; /* No of times this Bucket used */
   U32              bucketFreeReq; /* No of times this Bucket freed */
   U32              entId; /* Tapa task used this bucket */
   U32              key; /* combination of file name and line */
   U8               fileName[CMM_HIST_MAX_FILENAME]; /* File Name where memory allocation primitive used */
};

struct cmHstGrmHashListEnt    /* hash list entry */
{
   CmMemEntries      entries[CMM_HIST_MAX_MEM_ENTRY_PER_BIN]; /* Number of entires in each bin */
   U32               numOfEntries; /*Number of entries in hash list */
};

struct cmHstGrmHashListCp /* Hash List control pointer */
{
   CmHstGrmHashListEnt   hashList[CMM_HIST_MAX_MEM_BIN]; /* Number of bins in hash list */
   U16                   totalNumEntries; /* Total number of bins */
};

#endif /* SS_HISTOGRAM_SUPPORT */

/* cm_mem_x_001.main_9 - addition of memory header for blocks in buckets */
#ifdef SSI_DEBUG_LEVEL1
/* Memory Block Header */
struct cmMmBlkHdr
{
   /* trSignature shall always be maintained as the first element in this structure */
   U8          trSignature[CMM_TRAMPLING_SIGNATURE_LEN];  /* signature to detect trampling */
   CmMmBlkHdr  *nextBlk;         /* pointer to the next memory block header */
   U32         memFlags;         /* Free/Static/Dynamic */
   Size        requestedSize;    /* requested size for which this mem blk has been allocated */
};
#endif /* SSI_DEBUG_LEVEL1 */

/* Memory bucket structure */
struct cmMmBkt                /* Bucket Structure */
{
/* cm_mem_x_001.main_9 - addition of next block pointer */
#ifdef SSI_DEBUG_LEVEL1
   CmMmBlkHdr   *nextBlk;   /* pointer to the next memory block header */
#else
   CmMmEntry   *next;         /* Pointer to the next memory block */
#ifdef MS_MBUF_CORRUPTION /*PST Should not take code Under this flag*/
   CmMmEntry   *last;         /* Pointer to the last memory block */
#endif
#endif /* SSI_DEBUG_LEVEL1 */
   Size         size;         /* Size of the block */
   U32          numBlks;      /* Total number of blocks in the bucket */
   U32          maxAlloc;     /* Maximum number of blocks allocated till now */
   U32          numAlloc;     /* Number of blocks allocated */
   SLockId      bktLock;      /* Lock to protect the bucket pool */ 
   U32          bktFailCnt;   /* bucket alloc failure count */
   U32          bktNoFitCnt;  /* number of blocks not fit */
/* cm_mem_x_001.main_9 - addition of statistics related data */
#ifdef SSI_DEBUG_LEVEL1
   Data         *bktStartPtr;   /* maintains the start address of the memory block in the bucket */
   StsCntr      numAllocAttempts;   /* total number of allocation attempts */
   StsCntr      numDeallocAttempts;   /* total number of de-allocation attempts */
   Size         staticMemUsed;   /* amount of memory used for static allocations */
   Size         dynamicMemUsed;   /* amount of memory used for dynamic allocations */
   U8           trampleCount;   /* incremented everytime a trampling is detected in any block of the bucket */
#endif /*SSI_DEBUG_LEVEL1*/
/* cm_mem_x_001.main_11: Additions */
#ifdef SS_HISTOGRAM_SUPPORT 
  CmHstGrmHashListCp hstGrmHashListCp;
#endif /* SS_HISTOGRAM_SUPPORT */
};


/* Size-To-Bucket map table structure */ 
struct cmMmMapBkt
{
   U16   bktIdx;              /* The index to the memory bucket */

#if (ERRCLASS & ERRCLS_DEBUG)
   U16   numReq;              /* Number of the allocation request */
   U16   numFailure;          /* Number of allocation failure form the bucket */
#endif

};

/* Heap entry structure linked in the heap control block */ 
struct cmHEntry
{
/* cm_mem_x_001.main_9 - addition to provide trampling and double-free detections support */
#ifdef SSI_DEBUG_LEVEL1
  /* trSignature shall always be maintianed as the first element in this structure */
  U8         trSignature[CMM_TRAMPLING_SIGNATURE_LEN];  /* signature to detect trampling */
  U32        memFlags;          /* flag to maintain the memory status */
  Size       requestedSize;     /* size of the heap entry block */
#endif /* SSI_DEBUG_LEVEL1 */
  CmHEntry  *next;             /* Pointer to the next entry block */
  Size       size;             /* size of the heap entry block */
};

/* Heap control block */
struct cmMmHeapCb
{
   Data     *vStart;           /* Memory start address */
   Data     *vEnd;             /* Memory end address */
   CmHEntry *next;             /* Next heap block entry */
   Size      avlSize;          /* Total available memory */
   Size      minSize;          /* Minimum size that can be allocated */
   SLockId   heapLock;         /* Lock to protect the heap pool */
#if (ERRCLASS & ERRCLS_DEBUG)
   U16       numFragBlk;       /* Number of fragmented block */
   U16       numReq;           /* Number of allocation request */
   U16       numFailure;       /* Number of allocation failure */
#endif
   U32       heapAllocCnt;     /* Number of blocks from heap */
/* cm_mem_x_001.main_9 - addition of statistics related data */
#ifdef SSI_DEBUG_LEVEL1
   Size     staticHeapMemUsed; /* amount of heap memory used for static allocations */
   Size     dynamicHeapMemUsed; /* amount of heap memory used for dynamic allocations */
   Size     nextOffset; /* Offset to the next pointer in structure CmHEntry */
                        /* Update this in cmMmHeapInit if cmHEntry is changed */
   StsCntr      numAllocAttempts;   /* total number of allocation attempts in heap */
   StsCntr      numDeallocAttempts;   /* total number of de-allocation attempts in heap */
   U8	    trampleCount;	/* incremented everytime a trampling is detected in any block of the heap */
#endif /* SSI_DEBUG_LEVEL1 */
 /* cm_mem_x_001.main_11: Additions */
#ifdef SS_HISTOGRAM_SUPPORT
   /* Hash list to support Heap Block histogram */
   CmHstGrmHashListCp heapHstGrmHashListCp;
#endif /* SS_HISTOGRAM_SUPPORT */

};

/* cm_mem_x_001.main_9 - addition of hash list for maintaining size vs. numAttempts statistics */
#ifdef SSI_DEBUG_LEVEL1
struct cmMmHashListEnt    /* hash list entry */
{
   U32  size;             /* pointer to key */
   U32  numAttempts;      /* number of attempts */
};

struct cmMmHashListCp
{
   CmMmHashListEnt  *hashList;
   U16  numOfbins;
   U16  numOfEntries;
};
#endif /* SSI_DEBUG_LEVEL1 */

/* Memory region control block */ 
struct cmMmRegCb
{
   Region       region;        /* Region  Id of the memory */
   SRegInfo     regInfo;       /* Region information block */

   U8           chFlag;        /* Flag defines the region characteristics */
   Data        *pAddr;         /* Physical address of the memory block.
                                  Valid if CMM_REG_PHY_VALID bit is set */
 
   Size         bktSize;       /* Size of the memory used for the bucket pool */
   U16          bktQnPwr;      /* Quantum size of the bucket pool */
   Size         bktMaxBlkSize; /* Maximum size of block in the bucket pool */
   U16          numBkts;       /* Number of buckets in the Bucket Pool */

   CmMmMapBkt   mapTbl[CMM_MAX_MAP_ENT]; /* size-to-bucket map table */
   CmMmBkt      bktTbl[CMM_MAX_BKT_ENT]; /* Pointer to the memory bkt tbl */
 
   Bool         heapFlag;      /* Set to true if the heap pool is configured */
   Size         heapSize;      /* Size of the heap pool */
   CmMmHeapCb   heapCb;        /* Heap pool control block */
/* cm_mem_x_001.main_9 - addition of hash list control point in region control block */
#ifdef SSI_DEBUG_LEVEL1
   CmMmHashListCp hashListCp;  /* hast list to maintain the size statistics */
#endif /* SSI_DEBUG_LEVEL1 */
#ifdef SS_MULTICORE_SUPPORT /*cm_mem_x_001.main_10*/
   SsSTskEntry  *sTsk;
#endif /* SS_MULTICORE_SUPPORT */

};

 /* cm_mem_x_001.main_11: Additions */
#ifdef SS_MEM_LEAK_STS
typedef struct _memHash
{
   SLockId         memLck;
   Bool            used;
   CmHashListCp    memHashCp;
}MemHash;

typedef struct _memAllocInfo
{
   CmHashListEnt         ent;
   U32                   memAddr;
   Size                  reqSz;
   Size                  allocSz;
   U16                   bktIdx;
   U8                    moduleId;
   U8                    bTrcSz;
   PTR                   backTrace;
}MemAllocInfo; 

typedef struct _memLkCb
{
   Bool        memLkMdlInit;
   FILE        *fileLkLog;
   MemHash     memUsrMdl[CM_MEM_USR_MDL][CM_MAX_HASH_PER_TSK];
}MemLkCb;

typedef struct _memUsrMdlStr
{
   Txt   *fPStr;
   Txt   *mdlStr; 
}MemUsrMdlStr;

#ifdef SS_MEM_LEAK_SOL
typedef struct backtrace
{
  Void   **bt_buffer;
  S32    bt_maxcount;
  S32    bt_actcount;
} Backtrace_t;
#endif /* SS_MEM_LEAK_SOL */

#endif /* SS_MEM_LEAK_STS */


/* functions prototypes */
 
EXTERN S16 cmMmRegInit   ARGS((
                         Region region, 
                         CmMmRegCb *regCb, 
                         CmMmRegCfg *cfg));
EXTERN S16 cmMmRegDeInit ARGS(( CmMmRegCb *regCb));
 /* cm_mem_x_001.main_11: Additions */
#ifdef SS_MEM_LEAK_STS
EXTERN Void cmInitMemLeakMdl    ARGS((Void));
/* cm_mem_x_001.main_12 : Additions */
EXTERN Void cmDeinitMemLeakMdl    ARGS((Void));
EXTERN Void cmStorAllocBlk      ARGS((U32 addr, Size reqSz, Size allocSz,
                                      U16 bktIdx));
EXTERN Void cmRlsAllocBlk       ARGS((U32 addr));
EXTERN U8   cmMemGetModuleId    ARGS((S8 **funNm, S32 traceSize));
EXTERN S16  cmMemGetStrMtchIdx  ARGS((U8 strtIdx, U8 endIdx,
                                      S8 *str, S8 **strLst));
EXTERN Void cmMemOpenMemLkFile  ARGS((S8 *arg));
EXTERN Void SLogLkInfo          ARGS((Void));
EXTERN Void SFlushLkInfo        ARGS((Void));

#ifdef SS_MEM_LEAK_SOL
EXTERN S32 cmAddrToSymStr       ARGS((Void *pc, S8 *buffer, S32 size));
EXTERN S32 cmLeakCallBack       ARGS((uintptr_t pc, S32 signo, Void *arg));
EXTERN S32 backtrace            ARGS((Void **buffer, S32 count));
#endif /* SS_MEM_LEAK_SOL */

#endif /* SS_MEM_LEAK_STS */
/* cm_mem_x_001.main_9 - addition of an API prototype for sanity check */
#ifdef SSI_DEBUG_LEVEL1
EXTERN S16 cmMmRegIsBlkSane ARGS((CmMmBlkHdr *blkPtr));
#endif /* SSI_DEBUG_LEVEL1 */

#ifdef __cplusplus
}
#endif

#endif

/********************************************************************30**
 
         End of file:     cm_mem.x@@/main/nodal_main/1 - Thu Nov 21 09:40:15 2013
 
*********************************************************************31*/
 

/********************************************************************40**
 
        Notes:
 
*********************************************************************41*/
 
/********************************************************************50**
 
*********************************************************************51*/
 

/********************************************************************60**
 
        Revision history:
 
*********************************************************************61*/

/********************************************************************90**
 
    ver       pat    init                  description
------------ -------- ---- -----------------------------------------------
1.1          ---      rm   1. initial release

1.2          ---      kp   1. Removed prototypes for cmAlloc, cmFree and
                              cmCtl and moved them to cm_mem.c to remove
                              GCC compile warnings

1.3          ---      kp   1. C++ compilable

1.4          ---      rm   1. Remove the bktLock from cmMmRegCb and add it
                              cmMmRegCb.

1.5          ---      dvs  1. updated copyright
/main/7      ---      bdu  1. Change several data types from U16 to U32
                              so that a huge memory allocation will be
                              supported.
/main/8      ---      rbabu 1. updated copyright information
/main/9      ---      pdb  1. Changes made to accomodate memory calculator
                              tool support
/main/9  cm_mem_x_001.main_9      vk   1. Changes for SSI enhancements
/main/11     ---      cm_mem_x_001.main_10          ch   1. Updated for SSI Multicore.
/main/12     ---      cm_mem_x_001.main_11 schandra1 1. ssi-ph2 value added feature additions
/main/13     ---      cm_mem_x_001.main_12 pradeep   1. cmDeinitMemLeakMdl Added
                                                     2. cm_hash.h/x are guarded under HISTOGRAM
*********************************************************************91*/

