/*
* Copyright (c) 2017 Sprint
*
* Licensed under the Apache License, Version 2.0 (the "License");
* you may not use this file except in compliance with the License.
* You may obtain a copy of the License at
*
*    http://www.apache.org/licenses/LICENSE-2.0
*
* Unless required by applicable law or agreed to in writing, software
* distributed under the License is distributed on an "AS IS" BASIS,
* WITHOUT WARRANTIES OR CONDITIONS OF ANY KIND, either express or implied.
* See the License for the specific language governing permissions and
* limitations under the License.
*/

/******************************************************************************

     Name:    vb_mme_s3_hndlr.x
     
     Desc:    Trillium LTE CNE - S3 Interface Handler functions

******************************************************************************/

#ifndef _VB_ACC_S3_X_
#define _VB_ACC_S3_X_

PUBLIC S16 vbAccTriggeriRATHO (void);
void printBuf(char* buf, U32 buflen,U8 format);
#endif
